<svg xmlns="http://www.w3.org/2000/svg" viewBox="0 0 88 72" width="88" height="72">
    <title>
        Image
    </title>
    <path d="M0 7.998C0 3.58 3.586 0 8.004 0h71.992C84.416 0 88 3.583 88 7.998v56.004C88 68.42 84.414 72 79.996 72H8.004C3.584 72 0 68.417 0 64.002V7.998zM52 64h-8L26 46 8 64V8h72v56L53 36 38.764 50.764 52 64zM24 32a8 8 0 1 0 0-16 8 8 0 0 0 0 16z" offfill="#900" fill-rule="evenodd"/>
</svg>
